387.592 191.376 433.486 212.323 0.0620793
407.028 212.405 432.67 248.662 -0.00976553
412.912 210.993 468.835 230.945 0.663989
391.222 210.202 455.762 233.584 -1.55111
359.907 167.467 419.832 190.224 -0.539661
408.74 151.259 430.504 206.998 -0.496204
396.428 204.018 431.046 238.237 1.51078
