416.404 289.26 429.955 325.506 -1.19923
339.085 283.916 407.857 313.234 0.617761
357.56 289.31 413.987 326.434 -0.765756
377.393 284.981 420.052 315.606 1.56429
396.815 299.953 439.5 316.334 0.808547
372.869 274.488 401.319 328.596 1.33276
382.189 288.642 406.593 346.259 0.560954
