326.585 225.579 405.211 258.859 -1.22019
354.236 188.481 434.755 222.943 0.203204
293.736 243.345 392.293 281.939 0.196145
301.021 231.289 343.616 317.507 1.51128
383.322 205.35 427.591 249.428 -0.990637
356.084 239.394 385.104 297.637 0.573104
354.808 202.028 392.598 269.037 0.182678
