263.99 263.817 287.015 300.911 -0.545856
262.351 277.575 303.644 303.983 -1.16115
249.021 274.207 286.173 292.517 -1.45595
259.248 256.548 301.24 278.685 0.901449
226.159 279.755 270.229 303.994 0.509979
245.33 250.712 291.163 276.31 0.772843
244.863 260.219 295.294 277.234 1.18992
