266.901 298.466 342.382 358.463 0.813213
249.822 325.56 306.292 387.174 1.07687
271.086 271.539 334.594 328.795 -0.101837
256.579 283.486 297.283 388.19 1.10496
228.796 282.719 278.699 336.486 -0.313966
240.532 379.223 304.312 403.998 1.26646
201.598 319.537 242.314 366.616 1.37777
