299.335 138.286 342.841 219.597 -0.827408
324.498 150.02 374.552 231.523 0.888979
289.232 125.68 336.767 162.352 -0.7156
310.626 197.236 361.543 272.697 -0.680025
275.442 233.38 320.762 292.267 0.170375
309.458 210.428 346.392 294.054 0.557852
272.758 228.214 345.835 276.183 0.197415
