323.863 294.592 373.739 350.092 1.28123
343.595 234.646 386.864 343.191 0.396907
316.535 315.805 380.059 353.958 -0.225017
359.989 211.735 391.17 294.281 -0.28103
325.231 268.982 359.447 357.289 -0.49354
271.682 270.772 371.714 304.871 -0.524573
372.464 248.283 450.269 285.761 -0.0586871
