383.287 244.209 410.433 269.392 1.03261
372.012 219.512 398.77 259.126 -0.946495
381.608 251.223 419.826 276.679 -0.700212
425.102 246.414 443.945 300.186 0.146977
415.735 252.855 433.033 303.367 0.519311
372.161 236.233 406.154 251.793 1.30132
370.178 252.775 413.453 274.37 -0.850525
