361.757 146.149 384.744 205.491 -1.55942
376.224 161.201 392.919 206.088 -0.104976
367.255 168.95 389.89 223.445 1.51201
347.149 158.123 387.291 171.947 -1.48564
330.38 144.481 388.05 168.579 -1.56471
374.124 164.653 406.411 208.551 -0.370045
375.017 166.387 391.311 210.249 0.473685
