328.132 181.471 370.974 268.53 -0.017474
327.716 214.214 399.097 248.702 0.0158619
345.006 218.657 377.082 311.869 0.158074
272.929 251.019 363.69 303.987 0.287229
330.013 219.193 383.157 306.296 -1.11035
267.692 212.872 334.838 261.004 -0.620298
354.917 220.607 385.897 299.543 -1.46335
