336.274 271.224 374.97 332.399 0.710091
342.557 303.586 372.434 327.41 -0.0682983
346.825 322.977 402.236 358.435 0.130808
365.923 244.85 401.746 308.238 1.34315
350.731 304.073 424.232 330.51 0.994289
347.091 314.712 386.331 335.439 0.695314
312.148 298.401 385.388 325.399 0.0658922
