256.953 173.726 318.784 234.022 -1.21097
279.379 150.705 313.84 248.588 0.633423
302.487 193.513 341.891 269.283 0.440258
294.932 156.768 331.949 244.465 -0.79125
297.669 209.555 368.53 266.957 -0.516379
336.744 242.536 401.102 274.598 -1.03511
287.178 153.451 346.618 187.001 0.202908
