423.736 144.951 476.191 233.366 -0.8847
421.984 137.088 500.563 199.858 0.161025
402.191 127.83 446.826 234.098 -1.08791
402.359 92.7146 452.606 196.828 0.00489264
359.733 137.543 418.619 226.224 -1.53271
340.226 80.7557 397.979 157.412 0.815622
347.082 152.854 396.539 188.594 -0.856958
