275.026 242.419 318.945 277.427 -1.40703
211.41 234.534 263.997 264.334 0.90427
298.318 211.691 327.522 265.525 -1.26883
264.4 208.918 308.897 246.936 -0.404004
283.076 215.03 313.678 262.01 0.898666
209.278 235.308 249.438 260.039 -0.476784
231.771 221.849 281 244.113 -0.535441
