189.694 105.896 240.704 127.262 0.775021
233.067 94.3919 263.377 129.917 0.124316
222.503 93.4048 257.935 125.208 1.18447
211.675 110.087 258.253 135.084 0.493242
225.072 91.387 251.223 121.664 -0.472
185.236 115.092 218.02 154.102 -1.30772
224.66 103.753 265.393 123.877 -0.923236
