303.649 227.175 373.198 267.938 -1.2799
303.496 214.617 357.927 272.133 0.972316
293.715 208.637 367.711 247.879 1.33458
327.103 207.769 401.141 257.442 -0.489866
299.638 208.95 332.723 280.269 -1.06314
322.762 225.594 396.253 264.488 0.104828
334.076 231.046 400.477 284.722 0.223265
