313.669 210.291 408.232 251.734 1.27585
293.411 197.621 392.151 241.555 0.912988
302.418 252.789 345.307 326.465 0.330011
314.583 192.224 423.653 233.329 0.266106
301.006 160.632 364.319 201.817 0.485374
334.187 280.5 372.46 359.363 -0.164937
292.085 131.74 361.245 214.735 0.539494
