430.797 161.783 487.994 219.745 0.640579
475.884 197.225 563.342 260.444 1.23018
474.699 166.347 513.091 266.425 -1.19459
364.013 123.648 428.27 158.255 -0.4808
497.43 178.11 553.541 254.086 -0.336218
509.974 197.318 589.768 244.386 -1.32121
398.527 194.564 512.231 245.212 1.10815
