182.168 190.919 221.739 222.222 -0.360944
204.551 187.551 241.961 220.377 -0.258451
198.134 190.964 218.926 252.946 0.995452
186.431 206.551 242.064 234.162 -1.14094
239.13 178.976 264.803 239.477 -1.319
185.298 177.736 210.9 231.456 1.0415
180.254 180.766 202.558 228.289 1.2168
