298.223 197.239 347.717 249.443 1.38189
326.461 209.543 352.082 268.5 -0.947136
322.53 162.458 353.777 250.931 -0.120499
381.187 217.084 422.731 243.07 -0.0349753
291.295 177.448 332.729 226.048 -0.048779
287.137 170.563 347.485 195.506 0.897025
284.489 181.219 343.111 210.274 0.38909
