246.146 162.217 296.561 242.787 1.31589
207.824 212.487 324.064 272.46 -1.15543
264.279 155.99 364 197.611 -0.809154
236.31 136.4 318.871 221.305 -1.08195
243.333 167.317 291.509 225.299 -1.31962
305.673 180.617 351.419 270.028 0.168908
349.147 307.283 409.803 351.145 -0.586463
