396.634 172.595 418.75 231.251 0.466747
366.098 152.23 411.582 242.609 -1.01374
325.653 131.678 371.707 199.555 1.28508
367.343 169.925 417.338 200.241 0.639087
317.856 150.188 382.381 180.188 1.04279
326.942 162.072 372.032 229.692 0.391085
363.137 144.707 388.091 208.739 -1.12771
