358.977 184.546 385.302 240.895 -0.878727
317.217 166.333 346.867 209.891 -1.23444
384.717 207.587 407.393 241.37 0.035202
352.157 172.842 384.947 225.307 -0.287603
320.894 201.195 374.227 219.352 1.49745
338.181 142.692 363.562 205.852 -0.307455
275.683 195.017 334.762 218.136 -0.0482808
