260.351 136.389 297.177 189.79 -1.55592
262.544 105.75 295.506 154.046 0.40799
194.973 126.724 237.587 170.789 1.37891
223.986 123.525 274 164.3 -0.650988
226.222 142.676 274.366 183.864 -1.35066
214.276 167.052 254.931 185.773 -0.0627234
205.92 140.74 274.867 166.615 1.34025
