342.822 183.016 465.483 317.462 -0.79755
391.23 155.44 456.97 343.855 0.64175
462.222 166.567 544.731 284.546 1.25101
356.296 163.881 445.348 291.233 -0.991336
369.28 212.252 503.441 274.673 1.5682
327.636 172.077 428.871 368.723 1.17152
342.199 168.647 477.645 288.292 -0.251259
