356.449 241.729 388.988 310.222 -1.3971
368.656 223.953 409.882 312.702 -0.969098
320.88 257.42 347.703 337.467 -0.155219
344.078 224.51 419.782 272.647 1.43861
396.736 212.442 433.085 279.515 0.232554
406.439 212.187 436.415 293.589 0.0737457
348.635 253.593 420.845 309.167 -1.00022
