365.963 161.699 421.534 196.203 0.381529
375.054 149.419 409.962 208.634 -0.622411
446.425 97.6651 512.658 137.645 0.631075
406.468 103.394 460.148 155.45 0.461001
365.114 91.8389 417.331 134.364 0.302354
399.108 146.17 435.92 236.258 -1.35418
395.995 166.584 439.257 256.171 -0.467964
