256.478 144.753 308.385 190.72 -0.521661
189.072 150.038 245.748 183.214 1.50238
222.176 178.535 286.666 214.817 -0.21227
250.872 169.457 295.525 228.134 -1.24401
263.843 131.453 296.901 198.876 -0.392089
255.649 127.107 287.029 188.576 -0.68259
269.247 188.853 297.51 249.145 -0.275195
