222.953 176.84 281.66 217.201 -1.09365
235.827 149.03 283.867 212.678 0.654522
221.591 161.154 279.434 188.695 0.116177
257.298 146.855 292.574 167.459 -1.11471
188.002 164.991 241.246 208.927 -1.03367
217.307 174.91 293.84 211.874 -0.750035
226.151 173.258 310.804 205.487 0.721289
