306.702 164.822 365.284 195.917 -0.485107
323.972 163.623 373 181.551 -0.208485
340.123 142.175 366.148 192.107 0.972193
317.965 149.239 344.899 192.79 -0.202501
329.547 171.487 371.261 200.807 -1.35764
335.172 149.177 355.541 209.271 1.21353
333.05 173.171 361.809 185.991 -0.937161
