403.003 254.343 434.414 284.598 -0.84277
402.044 274.337 427.85 293.641 -1.23337
390.78 289.886 439.565 313.67 0.772194
397.346 273.591 416.891 312.964 -1.22445
412.929 245.913 435.655 296.676 1.0275
412.29 221.242 430.389 275.492 -0.334646
371.763 274.967 422.933 296.523 0.374789
