290.763 196.571 322.913 220.275 1.54904
297.336 195.564 327.223 215.832 0.339024
337.566 210.446 358.732 242.889 -1.0345
317.579 200.896 355.87 216.619 1.23896
318.605 175.886 342.935 213.103 -1.15347
327.548 190.708 367.703 208.047 0.0412928
315.001 208.724 358.972 231.401 -0.159037
