337.158 174.017 396.481 229.316 0.553806
270.709 228.333 335.382 278.471 -0.877406
340.003 191.343 409.651 227.832 -1.09328
286.026 188.258 343.622 237.99 0.182638
271.034 174.621 365.168 206.618 -0.672297
364.67 198.615 388.49 234.724 0.219719
274.625 220.505 356.962 257.656 1.31137
