428.241 228.929 450.109 263.838 0.886751
436.231 228.155 450.525 264.289 0.41323
424.922 218.541 445.741 245.576 1.53271
438.904 230.43 470.155 244.835 -0.504744
430.945 232.119 448.029 272.348 -0.319488
421.667 210.675 442.29 246.812 -0.311905
406.201 203.795 422.137 251.497 -1.05137
