321.653 138.525 374.055 187.169 0.918076
338 96.7253 390.673 124.643 -0.269636
363.683 67.2209 395.811 139.2 0.949096
369.014 127.031 441.03 154.133 0.105841
331.173 151.922 363.924 212.807 -1.47313
313.432 113.871 383.25 151.989 1.48514
334.683 170.318 365.713 247.403 0.674227
