281.691 161.668 306.009 220.64 -1.32671
290.675 145.275 341.607 170.245 1.13788
280.87 178.922 308.759 222.583 -0.486389
318.108 173.493 338.552 216.006 -0.0940886
285.515 180.389 310.023 236.434 -0.7545
311.637 186.441 345.824 218.347 -1.33327
291.492 198.179 341.265 227.563 -0.0729186
