467.294 236.806 493.899 284.821 -0.517062
465.322 182.225 489.983 247.142 1.35338
458.062 212.567 511.851 259.291 1.16905
441.687 218.212 513.76 250.569 0.773222
441.328 165.835 484.283 201.255 -1.16654
454.706 233.704 511.516 271.89 0.994754
450.489 212.438 478.769 250.548 0.838007
