318.032 193.362 379.393 258.158 0.399361
318.871 155.379 385.7 243.717 -0.157286
293.662 198.713 326.633 253.534 -0.829853
318.872 209.654 380.607 339.763 0.242284
257.387 176.078 335.966 250.37 0.226903
289.582 149.703 376.638 207.049 -1.09342
303.374 221.455 422.816 278.879 -1.5545
