429.299 263.389 463.549 325.995 1.23666
413.013 336.123 471.25 378.717 1.01657
398.567 320.889 447.302 370.144 1.52962
391.048 313.113 436.889 351.135 0.898164
395.246 300.723 422.318 377.398 0.305664
397.289 328.638 420.62 377.004 1.19641
408.441 347.71 438.911 409.165 -0.713445
