258.215 176.779 315.496 221.023 0.322353
268.984 200.031 352.458 263.002 0.101087
258.488 143.367 318.407 247.874 1.15496
410.74 160.267 451.157 211.244 -0.820778
210.882 178.283 328.349 221.887 -1.17098
239.162 137.712 279.542 257.063 -0.86945
218.279 138.239 319.862 192.931 -1.33338
