310.721 205.32 371.174 259.455 0.123908
321.446 208.713 370.376 269.937 -0.778782
327.455 189.449 364.974 277.907 0.580095
316.548 196.654 389.358 238.02 -1.36849
331.885 221.968 410.837 252.712 0.660584
336.013 164.36 368.788 234.399 -0.334819
316.66 253.1 366.513 315.411 0.239078
