334.748 282.857 361.299 339.755 1.34972
313.853 304.559 380.35 330.343 -0.887233
346.388 299.088 381.047 331.105 0.556007
326.693 301.791 353.664 365.358 -1.21861
348.501 304.154 396.603 320.515 0.213932
305.712 291.549 332.718 350.791 1.43314
327.238 313.338 368.446 348.14 -1.00098
