338.929 303.255 409.743 352.091 1.53597
362.796 199.048 445.006 229.767 0.0197174
315.292 296.093 422.827 348.682 0.96389
406.516 217.086 469.13 275.867 -1.20833
405.177 169.484 435.929 222.481 0.640242
324.107 345.601 419.988 377.851 1.51929
312.313 334.223 407.925 378.642 -1.46808
