357.702 203.166 456.249 238.695 -1.26033
329.549 186.41 412.653 231.15 -0.0955742
377.851 88.4755 418.83 149.903 1.43326
379.104 226.54 434.004 248.155 -0.604836
392.018 216.386 422.717 268.265 1.41189
323.562 198.678 357.798 299.048 -0.124941
409.684 115.025 463.373 172.582 0.625176
