215.838 275.834 241.395 324.633 1.56718
225.5 268.846 260.877 294.846 0.915039
248.999 247.772 271.652 309.238 0.849459
214.675 221.919 244.981 260.583 -1.41972
215.282 286.612 244.479 335.23 -0.683427
227.763 289.689 244.552 322.609 0.570341
220.593 264.307 245.345 311.318 0.476884
