349.616 117.584 422.352 142.263 0.540577
401.881 124.544 454.145 146.111 0.460895
398.979 105.84 426.376 180.813 -0.713975
380.547 116.322 431.924 148.352 -0.911892
407.262 115.119 427.507 171.272 0.392825
355.054 78.5344 381.369 149.503 -1.55705
386.897 131.842 447.347 159.035 -1.45715
