363.862 218.222 405.329 265.927 -0.972029
355 214.239 435.192 252.377 -1.52839
391.225 242.678 453.14 277.818 -1.21788
384.725 244.71 421.309 307.559 -1.42632
366.092 206.261 456.94 236.945 1.11736
409.955 270.823 478.186 295.185 0.00371059
400.44 236.201 433.111 333.601 -0.353783
