383.442 274.701 462.248 301.8 -0.0474082
403.379 277.958 454.975 310.678 1.31256
373.538 264.786 429.626 294.207 -0.549974
409.967 295.215 448.219 333.777 -0.13046
399.972 279.849 443.4 328.24 0.094827
369.146 271.999 408.26 300.889 0.794847
416.902 272.242 459.981 302.653 -1.32662
