375.194 197 428.054 216.712 -0.262691
428.175 246.813 458.836 308.099 0.110729
369.309 187.235 439.637 223.173 -0.290644
404.064 216.907 477.818 249.492 0.28654
394.087 223.07 457.355 262.65 1.03769
396.773 242.957 442.015 283.535 1.01262
421.887 250.805 452.275 332.685 -0.883441
