268.229 248.91 286.866 301.499 -0.229658
250.917 243.018 272.209 290.505 -1.28277
235.881 285.58 274.029 306.663 -1.39823
263.063 250.751 288.946 281.885 0.222602
221.032 285.362 281.045 305.545 -0.1504
246.827 262.086 270.677 303.376 -0.808904
253.897 252.265 276.458 307.103 -1.05037
