325.402 175.252 358.418 214.18 -0.544276
286.852 210.827 354.789 241.749 -0.0059049
348.381 232.947 383.653 273.256 -0.62643
296.986 243.137 343.454 288.805 -0.779454
328.22 183.575 402.001 212.772 -0.744375
311.438 194.956 334.597 260.358 1.44799
294.006 215.256 323.55 283.271 1.25743
