411.44 292.073 468.368 311.3 1.14426
438.306 250.755 465.135 288.953 1.22132
432.128 280.894 455.993 330.079 0.37726
451.107 260.263 510.078 280.075 -0.931044
445.693 279.423 465.393 334.627 -0.254154
410.739 287.35 454.096 309.502 -0.849076
427.993 279.966 473.802 306.413 0.711847
