386.319 233.037 419.539 247.26 -0.116254
380.827 257.262 416.137 271.465 0.959061
389.619 219.209 405.358 244.463 -1.13432
404.189 221.202 421.957 248.629 1.34356
393.032 231.611 409.335 255.935 -1.37063
391.156 217.492 427.458 231.178 1.00432
394.246 240.835 408.397 273.661 -0.779241
