272.277 178.45 323.014 206.442 0.34669
240.729 187.418 304.035 209.992 -0.710373
261.61 185.266 308.915 217.107 0.221642
264.19 185.127 308.528 209.096 -0.561409
313.209 187.616 336.294 253.101 1.27121
276.432 174.8 326.31 203.292 1.24401
332.296 164.425 357.127 223.979 -1.26593
