301.802 310.559 356.042 348.685 1.36643
300.689 280.626 326.291 324.465 0.787868
270.657 288.66 311.374 336.62 1.23607
199.41 245.655 228.331 288.725 -0.373091
295.092 257.396 323.209 324.424 -0.890293
192.362 227.446 228.111 276.493 -1.12133
260.857 298.48 330.048 330.688 -1.05425
