286.556 184.622 371.282 238.821 1.19327
283.623 211.101 400.842 250.694 0.760869
306.365 133.082 369.919 229.225 -0.184283
331.191 183.3 375.527 290.774 -1.14197
309.366 162.504 382.911 247.341 0.845721
239.471 175.193 306.06 237.006 0.29658
320.951 163.296 413.194 249.252 0.331691
