385.311 331.101 414.375 398.739 1.33226
452.015 322.82 480.244 394.38 0.0732487
445.852 302.823 482.13 348.691 0.233907
359.557 370.914 417.385 405.755 0.1491
428.072 295.267 469.733 341.18 1.26639
445.744 320.469 473.46 357.138 0.65297
375.274 369.287 430.317 398.934 -1.08923
