300.259 204.754 345.887 287.127 -0.823244
254.865 196.174 317.234 248.463 1.00792
305.119 223.316 368.893 302.167 -0.235406
234.967 208.355 327.012 252.612 0.218663
242.599 177.123 290.453 270.297 -1.02005
276.319 191.178 341.921 283.584 0.241839
280.655 199.397 349.245 250.609 1.50003
