336.974 237.108 368.53 305.152 0.282043
335.597 249.755 364.745 311.669 -0.282623
370.359 148.847 408.833 216.975 -1.55738
320.004 246.528 354.633 288.901 0.241963
334.422 235.668 396.455 270.542 1.54626
328.195 177.12 377.906 229.624 1.23154
311.97 187.97 371.066 224.2 -0.475084
