277.384 224.411 322.761 297.671 -0.292336
279.782 240.666 306.873 284.36 -1.3175
274.542 229.088 337.186 264.534 -0.331272
279.012 209.187 332.772 253.245 0.902264
256.242 244.588 327.358 283.383 1.47096
277.641 235.136 348.06 267.209 -0.919106
314.476 206.175 353.944 252.208 -0.539515
