232.312 142.02 315.161 212.577 -1.03639
330.142 177.036 418.067 215.779 -0.253729
233.164 147.497 387.173 225.706 -0.33128
384.325 183.797 440.654 255.053 1.23351
326.496 159.692 408.519 215.87 -1.14723
286.3 116.661 363.467 271.249 -1.39145
206.684 157.213 244.5 258.103 0.465224
