302.888 149.728 342.058 204.059 0.586463
285.338 143.286 305.877 183.31 -0.496161
300.185 135.693 351.13 174.004 1.2483
286.411 160.001 328.868 200.036 1.08881
321.85 118.395 354.798 198.907 -1.41514
283.432 157.84 374.527 190.327 -1.46362
285.991 145.04 326.504 173.922 -1.10592
