375.79 207.266 459.12 251.955 1.19321
402.595 231.995 455.658 251.748 -0.746852
420.172 126.29 457.798 188.54 1.07326
367.529 208.88 436.534 235.928 -1.05252
410.323 188.444 443.122 276.956 -0.776543
362.23 204.946 430.796 242.858 0.0152864
373.29 181.66 415.57 248.67 0.859399
