336.072 212.993 370.41 262.443 0.234707
369.279 208.087 404.919 259.232 -1.45814
341.413 198.623 402.384 223.749 0.035182
345.933 245.062 364.343 271.036 0.11731
352.005 245.1 393.032 267.141 -1.0866
350.083 177.86 405.809 206.778 1.34231
350.888 228.787 407.228 259.749 -0.733357
