318.121 195.05 348.225 279.796 -0.734193
319.348 236.417 370.727 276.179 0.132065
338.902 206.088 369.407 285.217 1.40799
284.884 141.636 305.695 202.22 -1.34606
295.76 225.307 361.751 257.079 -0.66123
312.783 163.84 341.163 212.173 -1.02653
299.871 222.281 334.348 297.381 -1.42779
