235.137 209.197 293.42 261.179 1.02704
251.266 313.726 329.461 383.837 0.998563
252.203 244.693 300.109 366.83 -0.436066
263.323 233.14 313.604 340.74 0.715856
260.656 149.487 311.401 221.235 1.12951
269.917 316.185 349.243 389.392 1.37239
262.24 335.06 317.778 361.83 -0.433625
