301.493 187.735 389.686 224.532 1.00752
321.134 188.334 401.805 231.67 0.762567
295.356 211.594 363.314 240.382 1.06922
298.041 177.576 382.854 223.665 1.06939
311.579 162.101 338.704 222.675 -0.926979
406.314 145.78 454.249 201.27 -0.750775
392.865 195.19 479.53 226.065 0.427558
