417.641 225.147 513.649 259.303 1.31435
447.042 231.904 513.431 264.255 1.37355
406.339 253.191 478.154 292.717 -0.680019
465.824 167.303 531.711 217.509 1.1564
489.026 190.304 561.803 232.087 -0.301562
457.872 134.733 519.899 181.126 0.382602
502.908 227.973 542.673 297.56 -0.503844
