186.226 193.249 220.519 227.231 -1.24697
181.223 187.012 211.137 206.791 -0.142148
188.597 180.749 210.767 226.497 0.558505
183.121 196.77 226.424 223.256 -1.3343
198.045 203.204 244.554 225.252 -0.0557841
202.756 178.236 222.614 215.939 -1.21525
184.996 190.152 216.582 217.622 0.176704
