301.308 210.834 354.009 228.846 0.717946
289.583 202.272 330.046 229.676 1.05813
300.059 216.13 337.672 246.962 0.303488
310.644 174.516 353.285 194.046 -0.66081
300.096 194.114 317.953 235.203 -0.637497
303.294 200.652 346.911 215.837 -0.22577
297.357 180.29 330.828 214.211 0.53703
