287.334 225.865 335.169 257.059 0.584463
297.018 222.066 343.444 254.29 -0.390849
370.06 302.893 415.932 354.874 0.203469
305.195 231.427 352.905 302.743 0.169576
339.136 314.735 366.1 373.162 -0.978578
280.413 224.713 337.994 269.843 -1.05921
297.837 277.584 342.742 337.703 0.195475
