303.864 134.037 331.286 206.583 -1.32336
311.455 146.881 330.941 198.35 0.479293
318.196 157.214 360.847 194.608 0.766624
302.112 169.442 362.048 206.261 -1.26957
296.258 146.19 323.725 210.484 -0.325184
293.195 150.99 363.442 189.132 -0.44675
299.123 112.614 333.569 187.821 0.25856
