363.097 236.683 436.932 330.43 0.157181
399.178 277.024 433.23 353.28 -0.44691
360.612 263.945 416.266 311.604 -0.261497
363.993 213.599 443.805 307.776 -0.38888
395.345 213.163 453.712 326.921 1.55878
325.022 288.654 412.454 363.083 0.0163742
359.864 244.932 417.882 341.254 0.468193
