216.682 265.279 252.987 326.609 -1.22366
257.983 255.55 300.319 307.386 -0.512445
226.455 256.608 272.169 314.296 1.10633
208.442 277.871 237.045 326.491 -1.36078
228.408 330.295 277.392 390.658 -1.08607
181.763 274.022 249.117 305.036 0.436491
214.579 237.837 247.989 320.614 -1.06624
