326.425 156.574 383.298 202.371 0.000951907
341.744 155.93 362.126 208.847 -1.25269
336.836 146.51 370.746 196.462 0.129802
334.837 167.431 379.407 203.286 -1.17712
315.427 147.977 363.284 182.616 1.39261
266.993 161.48 336.367 197.874 -0.377309
285.41 158.759 353.752 194.21 -1.06965
