294.413 112.796 340.858 185.167 -0.998817
326.914 162.362 391.894 207.704 0.981549
323.998 182.099 363.467 247.227 -1.37855
325.787 113.015 367.211 154.2 0.842552
336.629 188.408 357.597 248.623 0.390088
324.358 201.931 380.603 232.333 -1.5026
289.777 205.846 366.844 234.015 0.0293786
