275.593 9.71081 321.114 105.449 -0.985947
223.542 24.0398 257.611 120.886 1.08976
186.698 44.9999 287.965 126.397 -0.212028
189.474 58.0532 266.164 123.774 1.41687
211.24 53.4126 334.061 112.571 1.06417
204.745 118.823 334.43 166.095 -0.70393
130.725 106.82 208.005 156.654 -1.22581
