344.94 273.288 364.369 317.807 -1.05031
360.819 265.42 378.43 305.604 0.746207
348.617 258.814 380.372 279.529 1.49187
357.968 242.083 378.538 287.965 -0.82206
357.683 281.613 389.28 306.41 -1.10263
314.613 262.255 362.142 283.062 1.08069
347.5 280.682 381.083 302.975 1.10422
