307.412 210.4 329.664 258.542 -0.369713
313.77 204.557 371.141 231.488 -0.990776
308.186 207.716 371.341 247.127 -0.958134
269.122 221.482 326.654 245.988 -0.150382
310.848 195.285 355.74 245.879 -1.5539
302.314 235.116 343.063 273.798 -1.46745
340.403 185.641 374.011 250.748 1.1672
