351.212 241.407 372.23 273.041 -0.790439
313 256.629 359.913 280.4 1.49247
311.416 243.829 333.569 310.258 -0.0502435
312.331 254.154 344.755 293.596 1.37725
305.523 276.621 362.41 297.731 0.517912
364.085 260.075 404.902 290.652 -0.408391
333.307 254.44 360.67 307.655 0.709072
