304.049 239.262 387.716 283.467 -0.116088
282.577 273.123 378.492 317.047 0.748054
368.609 227.657 408.43 336.198 -0.297491
316.647 217.838 353.309 286.589 1.14136
354.649 223.551 408.593 300.081 0.959207
309.657 188.347 363.904 234.012 -0.0711683
374.451 241.146 423.257 325.06 -0.583002
