298.266 148.158 336.579 208.854 -1.27169
230.698 214.597 301.681 247.494 -0.157
264.295 155.715 300.98 200.341 0.36909
248.349 208.606 287.735 267.758 0.374991
302.266 197.076 331.296 260.998 -0.437147
224.478 209.933 261.697 263.249 -1.27062
232.691 196.509 262.763 262.595 -0.022823
