344.294 226.459 375.893 295.593 -0.143203
336.951 210.562 385.261 262.097 1.53971
377.796 201.331 420.718 273.168 0.62034
327.239 222.835 412.32 251.875 -0.623567
349.777 173.401 426.243 219.993 -0.00108479
353.489 213.213 407.673 271.287 1.02185
340.596 188.829 375.736 280.307 1.10058
