332.77 279.439 369.881 361.948 -0.93805
331.284 323.28 393.18 363.194 -1.16213
338.987 246.263 372.18 341.108 -0.309139
335.48 280.093 382.695 357.313 -1.32561
320.635 301.5 372.523 327.697 -1.54188
400.359 243.35 451.895 306.17 -1.02726
276.215 281.238 362.259 315.922 0.446362
